<?xml version="1.0" encoding="utf-8"?>
<!-- Generator: Adobe Illustrator 21.1.0, SVG Export Plug-In . SVG Version: 6.00 Build 0)  -->
<svg version="1.1" id="Layer_1" xmlns="http://www.w3.org/2000/svg" xmlns:xlink="http://www.w3.org/1999/xlink" x="0px" y="0px"
	 viewBox="0 0 32 24" style="enable-background:new 0 0 32 24;" xml:space="preserve">
<style type="text/css">
	.st0{fill:#C8D0E2;}
	.st1{fill:#C5CBD2;}
	.st2{fill:#7F7570;}
	.st3{fill:#E4E9F4;}
	.st4{fill:#464755;}
	.st5{fill:#5C5E6F;}
	.st6{fill:#D8DEEC;}
	.st7{fill:#FFFFFF;}
	.st8{fill:#969CB3;}
</style>
<g>
	<path class="st0" d="M9.4,2.1h3.3c0.3,0,0.6,0.2,0.6,0.6v1.1H8.8V2.6C8.8,2.3,9.1,2.1,9.4,2.1L9.4,2.1z M9.4,2.1"/>
	<path class="st0" d="M5,1.5h2.2c0.3,0,0.6,0.2,0.6,0.6v1.7H4.4V2.1C4.4,1.8,4.7,1.5,5,1.5L5,1.5z M5,1.5"/>
	<path class="st1" d="M15.2,1.5c-0.5,0-0.8,0.4-0.8,0.8v0c0,0.5-0.4,0.8-0.8,0.8H1.9C0.8,3.2,0,4,0,5.1v14.6c0,0.3,32,0.3,32,0V3
		c0-0.8-0.7-1.5-1.5-1.5H15.2z"/>
	<path class="st2" d="M0,13.7v7.4c0,0.8,0.6,1.4,1.4,1.4h29.2c0.8,0,1.4-0.6,1.4-1.4v-9C32,11.7,0,13.4,0,13.7z"/>
	<rect y="8.1" class="st2" width="32" height="13.2"/>
	<path class="st3" d="M22.6,13.7c0,3.7-3,6.6-6.6,6.6c-3.7,0-6.6-3-6.6-6.6C9.4,10,12.3,7,16,7C19.7,7,22.6,10,22.6,13.7L22.6,13.7z
		 M22.6,13.7"/>
	<path class="st4" d="M21.5,13.7c0,3-2.5,5.5-5.5,5.5s-5.5-2.5-5.5-5.5c0-3,2.5-5.5,5.5-5.5S21.5,10.6,21.5,13.7L21.5,13.7z
		 M21.5,13.7"/>
	<path class="st5" d="M19.9,13.7c0,2.1-1.7,3.9-3.9,3.9s-3.9-1.7-3.9-3.9c0-2.1,1.7-3.9,3.9-3.9S19.9,11.5,19.9,13.7L19.9,13.7z
		 M19.9,13.7"/>
	<path class="st4" d="M16,12.6c-0.6,0-1.1,0.5-1.1,1.1c0,0.6,0.5,1.1,1.1,1.1s1.1-0.5,1.1-1.1C17.1,13,16.6,12.6,16,12.6L16,12.6z
		 M16,12.6"/>
	<path class="st6" d="M18.5,9.8c-0.8,0-1.4,0.6-1.4,1.4c0,0.8,0.6,1.4,1.4,1.4c0.8,0,1.4-0.6,1.4-1.4C19.9,10.4,19.2,9.8,18.5,9.8
		L18.5,9.8z M18.5,9.8"/>
	<path class="st7" d="M16.6,12.3c-0.5,0-0.8,0.4-0.8,0.8c0,0.5,0.4,0.8,0.8,0.8c0.5,0,0.8-0.4,0.8-0.8C17.4,12.6,17,12.3,16.6,12.3
		L16.6,12.3z M16.6,12.3"/>
	<path class="st7" d="M19.5,12.1c-0.4-0.9-1.1-1.5-1.9-1.9c-0.3,0.3-0.5,0.6-0.5,1c0,0.8,0.6,1.4,1.4,1.4
		C18.9,12.6,19.3,12.4,19.5,12.1L19.5,12.1z M19.5,12.1"/>
	<path class="st5" d="M24.8,2.6h5.5c0.3,0,0.6,0.2,0.6,0.6v3.3c0,0.3-0.2,0.6-0.6,0.6h-5.5c-0.3,0-0.6-0.2-0.6-0.6V3.2
		C24.3,2.9,24.5,2.6,24.8,2.6L24.8,2.6z M24.8,2.6"/>
	<path class="st4" d="M29.2,5.9h-3.3c-0.3,0-0.6-0.2-0.6-0.6V4.3c0-0.3,0.2-0.6,0.6-0.6h3.3c0.3,0,0.6,0.2,0.6,0.6v1.1
		C29.8,5.7,29.5,5.9,29.2,5.9L29.2,5.9z M29.2,5.9"/>
	<path class="st7" d="M28.1,4.8c0,0.3-0.2,0.6-0.6,0.6c-0.3,0-0.6-0.2-0.6-0.6c0-0.3,0.2-0.6,0.6-0.6C27.9,4.3,28.1,4.5,28.1,4.8
		L28.1,4.8z M28.1,4.8"/>
	<path class="st6" d="M30.3,4c0,0.5-0.4,0.8-0.8,0.8c-0.5,0-0.8-0.4-0.8-0.8c0-0.5,0.4-0.8,0.8-0.8C30,3.2,30.3,3.5,30.3,4L30.3,4z
		 M30.3,4"/>
	<path class="st7" d="M29.2,3.7h-0.5c0,0.1-0.1,0.2-0.1,0.3c0,0.5,0.4,0.8,0.8,0.8c0.1,0,0.2,0,0.3-0.1V4.3
		C29.8,4,29.5,3.7,29.2,3.7L29.2,3.7z M29.2,3.7"/>
	<path class="st5" d="M9.9,6.5h2.2c0.3,0,0.6-0.2,0.6-0.6V4.8c0-0.3-0.2-0.6-0.6-0.6H9.9c-0.3,0-0.6,0.2-0.6,0.6v1.1
		C9.4,6.2,9.6,6.5,9.9,6.5L9.9,6.5z M9.9,6.5"/>
	<path class="st8" d="M7.7,8.1c0,0.9-0.7,1.7-1.7,1.7c-0.9,0-1.7-0.7-1.7-1.7c0-0.9,0.7-1.7,1.7-1.7C7,6.5,7.7,7.2,7.7,8.1L7.7,8.1z
		 M7.7,8.1"/>
	<path class="st5" d="M6.6,8.1c0,0.3-0.2,0.6-0.6,0.6c-0.3,0-0.6-0.2-0.6-0.6c0-0.3,0.2-0.6,0.6-0.6C6.4,7.6,6.6,7.8,6.6,8.1
		L6.6,8.1z M6.6,8.1"/>
	<path class="st8" d="M9.4,13.7c0,0.9-0.7,1.7-1.7,1.7c-0.9,0-1.7-0.7-1.7-1.7c0-0.9,0.7-1.7,1.7-1.7C8.6,12,9.4,12.7,9.4,13.7
		L9.4,13.7z M9.4,13.7"/>
	<path class="st5" d="M8.3,13.7c0,0.3-0.2,0.6-0.6,0.6c-0.3,0-0.6-0.2-0.6-0.6c0-0.3,0.2-0.6,0.6-0.6C8,13.1,8.3,13.4,8.3,13.7
		L8.3,13.7z M8.3,13.7"/>
</g>
</svg>
